{
	"info": {
		"_postman_id": "2811cb79-a254-4df5-9297-2faeb29fbbfd",
		"name": "Reign Backend Challenge",
		"schema": "https://schema.getpostman.com/json/collection/v2.1.0/collection.json"
	},
	"item": [
		{
			"name": "Get",
			"item": [
				{
					"name": "Filter by page",
					"request": {
						"method": "GET",
						"header": [],
						"url": null
					},
					"response": []
				},
				{
					"name": "Filter by Author",
					"request": {
						"method": "GET",
						"header": [],
						"url": null
					},
					"response": []
				},
				{
					"name": "Filter by Title",
					"request": {
						"method": "GET",
						"header": [],
						"url": null
					},
					"response": []
				},
				{
					"name": "Filter by Author and Title",
					"request": {
						"method": "GET",
						"header": [],
						"url": null
					},
					"response": []
				},
				{
					"name": "Filter by Author , Title and Tags",
					"request": {
						"method": "GET",
						"header": [],
						"url": null
					},
					"response": []
				}
			]
		},
		{
			"name": "Delete",
			"item": [
				{
					"name": "Delete by id",
					"request": {
						"method": "DELETE",
						"header": [],
						"url": {
							"raw": "http://localhost:3000/624fcfaeffe05bec6417e327",
							"protocol": "http",
							"host": [
								"localhost"
							],
							"port": "3000",
							"path": [
								"624fcfaeffe05bec6417e327"
							]
						}
					},
					"response": []
				}
			]
		},
		{
			"name": "Restor Original Data",
			"item": [
				{
					"name": "Populate with fetched data (restart)",
					"request": {
						"method": "GET",
						"header": [],
						"url": null
					},
					"response": []
				}
			]
		},
		{
			"name": "Post",
			"item": [
				{
					"name": "Create article",
					"request": {
						"method": "POST",
						"header": [],
						"body": {
							"mode": "raw",
							"raw": "{ \n    \"title\": \"Node JS conference\",\n    \"author\": \"Reyner Loza\", \n    \"tags\": [\"nodejs\", \"express\"]\n}",
							"options": {
								"raw": {
									"language": "json"
								}
							}
						},
						"url": {
							"raw": "http://localhost:3000/",
							"protocol": "http",
							"host": [
								"localhost"
							],
							"port": "3000",
							"path": [
								""
							]
						}
					},
					"response": []
				}
			]
		}
	]
}